<?xml version="1.0" encoding="utf-8"?>
<COLLADA xmlns="http://www.collada.org/2005/11/COLLADASchema" version="1.4.1">
  <asset>
    <contributor>
      <author>Automatically generated</author>
      <authoring_tool>Pixelcloud Games Unity3D Extension</authoring_tool>
    </contributor>
    <created>2016-02-28T16:52:42.3823064Z</created>
    <modified>2016-02-28T16:52:42.3823064Z</modified>
    <unit name="meter" meter="1"/>
    <up_axis>Z_UP</up_axis>
  </asset>
  <library_geometries>
    <geometry id="Collider-mesh">
      <mesh>
        <source id="Collider-mesh-positions">
          <float_array id="Collider-mesh-positions-array" count="24">0.5 -0.5 -1 0.5 -0.5 1 -0.5 -0.5 -1 -0.5 -0.5 1 -0.5 0.5 -1 -0.5 0.5 1 0.5 0.5 -1 0.5 0.5 1 </float_array>
          <technique_common>
            <accessor source="#Collider-mesh-positions-array" count="8" stride="3">
              <param name="X" type="float"/>
              <param name="Y" type="float"/>
              <param name="Z" type="float"/>
            </accessor>
          </technique_common>
        </source>
        <source id="Collider-mesh-normals">
          <float_array id="Collider-mesh-normals-array" count="24">0 -1 0 0 -1 0 1 0 0 1 0 0 0 1 0 0 1 0 -1 0 0 -1 0 0 </float_array>
          <technique_common>
            <accessor source="#Collider-mesh-normals-array" count="8" stride="3">
              <param name="X" type="float"/>
              <param name="Y" type="float"/>
              <param name="Z" type="float"/>
            </accessor>
          </technique_common>
        </source>

        <vertices id="Collider-mesh-vertices">
          <input semantic="POSITION" source="#Collider-mesh-positions"/>
        </vertices>
        <polylist material="Material1" count="8">
          <input semantic="VERTEX" source="#Collider-mesh-vertices" offset="0"/>
          <input semantic="NORMAL" source="#Collider-mesh-normals" offset="1"/>
          <vcount>3 3 3 3 3 3 3 3 </vcount>
          <p>0 0 1 0 2 0 2 1 1 1 3 1 2 2 3 2 4 2 4 3 3 3 5 3 4 4 5 4 6 4 6 5 5 5 7 5 6 6 7 6 0 6 0 7 7 7 1 7 </p>
        </polylist>
      </mesh>
      <extra><technique profile="MAYA"><double_sided>1</double_sided></technique></extra>
    </geometry>
  </library_geometries>
  <library_visual_scenes>
    <visual_scene id="Scene" name="Scene">
      <node id="Collider" type="NODE">
        <translate sid="location">0 0 0</translate>
        <rotate sid="rotationZ">0 0 1 0</rotate>
        <rotate sid="rotationY">0 1 0 0</rotate>
        <rotate sid="rotationX">1 0 0 0</rotate>
        <scale sid="scale">1 1 1</scale>
        <instance_geometry url="#Collider-mesh">
        </instance_geometry>
      </node>
    </visual_scene>
  </library_visual_scenes>
  <scene>
    <instance_visual_scene url="#Scene"/>
  </scene>
</COLLADA>
