<?xml version="1.0" encoding="utf-8"?>
<COLLADA xmlns="http://www.collada.org/2005/11/COLLADASchema" version="1.4.1">
  <asset>
    <contributor>
      <author>Automatically generated</author>
      <authoring_tool>Pixelcloud Games Unity3D Extension</authoring_tool>
    </contributor>
    <created>2016-02-28T16:52:44.4232226Z</created>
    <modified>2016-02-28T16:52:44.4232226Z</modified>
    <unit name="meter" meter="1"/>
    <up_axis>Z_UP</up_axis>
  </asset>
  <library_geometries>
    <geometry id="Collider-mesh">
      <mesh>
        <source id="Collider-mesh-positions">
          <float_array id="Collider-mesh-positions-array" count="96">0.06910571 -0.4873418 -1 0.06910571 -0.4873418 1 -0.101626 -0.4810127 -1 -0.101626 -0.4810127 1 -0.2560975 -0.1265823 -1 -0.2560975 -0.1265823 1 -0.4268292 -0.03164556 -1 -0.4268292 -0.03164556 1 -0.4918699 0.2088608 -1 -0.4918699 0.2088608 1 -0.4430894 0.2341772 -1 -0.4430894 0.2341772 1 -0.4512195 0.335443 -1 -0.4512195 0.335443 1 -0.3699187 0.4367089 -1 -0.3699187 0.4367089 1 0.2479675 0.4873418 -1 0.2479675 0.4873418 1 0.394309 0.4367089 -1 0.394309 0.4367089 1 0.4756098 0.3481013 -1 0.4756098 0.3481013 1 0.4512195 0.01265824 -1 0.4512195 0.01265824 1 0.3780488 -0.06962024 -1 0.3780488 -0.06962024 1 0.296748 -0.0949367 -1 0.296748 -0.0949367 1 0.199187 -0.3607595 -1 0.199187 -0.3607595 1 0.1260163 -0.3924051 -1 0.1260163 -0.3924051 1 </float_array>
          <technique_common>
            <accessor source="#Collider-mesh-positions-array" count="32" stride="3">
              <param name="X" type="float"/>
              <param name="Y" type="float"/>
              <param name="Z" type="float"/>
            </accessor>
          </technique_common>
        </source>
        <source id="Collider-mesh-normals">
          <float_array id="Collider-mesh-normals-array" count="96">0.03704494 -0.9993136 0 0.03704494 -0.9993136 0 0.9167185 -0.3995337 0 0.9167185 -0.3995337 0 0.4859784 -0.8739709 0 0.4859784 -0.8739709 0 0.965324 -0.2610546 0 0.965324 -0.2610546 0 0.4606451 0.8875844 0 0.4606451 0.8875844 0 0.9967927 -0.08002698 0 0.9967927 -0.08002698 0 0.7797854 0.626047 0 0.7797854 0.626047 0 0.08167159 0.9966593 0 0.08167159 0.9966593 0 -0.3269735 0.9450335 0 -0.3269735 0.9450335 0 -0.7368345 0.6760732 0 -0.7368345 0.6760732 0 -0.997367 -0.07251911 0 -0.997367 -0.07251911 0 -0.7472547 -0.6645378 0 -0.7472547 -0.6645378 0 -0.2973115 -0.9547805 0 -0.2973115 -0.9547805 0 -0.9387705 -0.3445429 0 -0.9387705 -0.3445429 0 -0.3969552 -0.917838 0 -0.3969552 -0.917838 0 -0.857698 -0.514154 0 -0.857698 -0.514154 0 </float_array>
          <technique_common>
            <accessor source="#Collider-mesh-normals-array" count="32" stride="3">
              <param name="X" type="float"/>
              <param name="Y" type="float"/>
              <param name="Z" type="float"/>
            </accessor>
          </technique_common>
        </source>

        <vertices id="Collider-mesh-vertices">
          <input semantic="POSITION" source="#Collider-mesh-positions"/>
        </vertices>
        <polylist material="Material1" count="32">
          <input semantic="VERTEX" source="#Collider-mesh-vertices" offset="0"/>
          <input semantic="NORMAL" source="#Collider-mesh-normals" offset="1"/>
          <vcount>3 3 3 3 3 3 3 3 3 3 3 3 3 3 3 3 3 3 3 3 3 3 3 3 3 3 3 3 3 3 3 3 </vcount>
          <p>0 0 1 0 2 0 2 1 1 1 3 1 2 2 3 2 4 2 4 3 3 3 5 3 4 4 5 4 6 4 6 5 5 5 7 5 6 6 7 6 8 6 8 7 7 7 9 7 8 8 9 8 10 8 10 9 9 9 11 9 10 10 11 10 12 10 12 11 11 11 13 11 12 12 13 12 14 12 14 13 13 13 15 13 14 14 15 14 16 14 16 15 15 15 17 15 16 16 17 16 18 16 18 17 17 17 19 17 18 18 19 18 20 18 20 19 19 19 21 19 20 20 21 20 22 20 22 21 21 21 23 21 22 22 23 22 24 22 24 23 23 23 25 23 24 24 25 24 26 24 26 25 25 25 27 25 26 26 27 26 28 26 28 27 27 27 29 27 28 28 29 28 30 28 30 29 29 29 31 29 30 30 31 30 0 30 0 31 31 31 1 31 </p>
        </polylist>
      </mesh>
      <extra><technique profile="MAYA"><double_sided>1</double_sided></technique></extra>
    </geometry>
  </library_geometries>
  <library_visual_scenes>
    <visual_scene id="Scene" name="Scene">
      <node id="Collider" type="NODE">
        <translate sid="location">0 0 0</translate>
        <rotate sid="rotationZ">0 0 1 0</rotate>
        <rotate sid="rotationY">0 1 0 0</rotate>
        <rotate sid="rotationX">1 0 0 0</rotate>
        <scale sid="scale">1 1 1</scale>
        <instance_geometry url="#Collider-mesh">
        </instance_geometry>
      </node>
    </visual_scene>
  </library_visual_scenes>
  <scene>
    <instance_visual_scene url="#Scene"/>
  </scene>
</COLLADA>
