<?xml version="1.0" encoding="utf-8"?>
<COLLADA xmlns="http://www.collada.org/2005/11/COLLADASchema" version="1.4.1">
  <asset>
    <contributor>
      <author>Automatically generated</author>
      <authoring_tool>Pixelcloud Games Unity3D Extension</authoring_tool>
    </contributor>
    <created>2016-02-28T16:52:46.8488170Z</created>
    <modified>2016-02-28T16:52:46.8488170Z</modified>
    <unit name="meter" meter="1"/>
    <up_axis>Z_UP</up_axis>
  </asset>
  <library_geometries>
    <geometry id="Collider-mesh">
      <mesh>
        <source id="Collider-mesh-positions">
          <float_array id="Collider-mesh-positions-array" count="150">0.2708333 -0.4696969 -1 0.2708333 -0.4696969 1 0.1916667 -0.4393939 -1 0.1916667 -0.4393939 1 0.1625 -0.4848485 -1 0.1625 -0.4848485 1 0.1041666 -0.4848485 -1 0.1041666 -0.4848485 1 0.05833331 -0.3484848 -1 0.05833331 -0.3484848 1 0.01666664 -0.3484848 -1 0.01666664 -0.3484848 1 -0.008333361 -0.2878788 -1 -0.008333361 -0.2878788 1 -0.1166667 -0.4090909 -1 -0.1166667 -0.4090909 1 -0.1541667 -0.4090909 -1 -0.1541667 -0.4090909 1 -0.1791667 -0.2878788 -1 -0.1791667 -0.2878788 1 -0.2791667 -0.4090909 -1 -0.2791667 -0.4090909 1 -0.3833334 -0.2575758 -1 -0.3833334 -0.2575758 1 -0.4375001 -0.2878788 -1 -0.4375001 -0.2878788 1 -0.4958334 1.490116E-08 -1 -0.4958334 1.490116E-08 1 -0.4916667 0.1969697 -1 -0.4916667 0.1969697 1 -0.4375001 0.3636364 -1 -0.4375001 0.3636364 1 -0.3500001 0.469697 -1 -0.3500001 0.469697 1 -0.03750003 0.469697 -1 -0.03750003 0.469697 1 0.1583333 0.3636364 -1 0.1583333 0.3636364 1 0.3166667 0.3787879 -1 0.3166667 0.3787879 1 0.3916667 0.3181818 -1 0.3916667 0.3181818 1 0.4458333 0.3333334 -1 0.4458333 0.3333334 1 0.4958333 0.1212121 -1 0.4958333 0.1212121 1 0.4791667 -0.1060606 -1 0.4791667 -0.1060606 1 0.4416667 -0.2272727 -1 0.4416667 -0.2272727 1 </float_array>
          <technique_common>
            <accessor source="#Collider-mesh-positions-array" count="50" stride="3">
              <param name="X" type="float"/>
              <param name="Y" type="float"/>
              <param name="Z" type="float"/>
            </accessor>
          </technique_common>
        </source>
        <source id="Collider-mesh-normals">
          <float_array id="Collider-mesh-normals-array" count="150">0.3574814 -0.9339202 0 0.3574814 -0.9339202 0 -0.841634 -0.5400484 0 -0.841634 -0.5400484 0 0 -1 0 0 -1 0 0.9478904 -0.3185965 0 0.9478904 -0.3185965 0 0 -1 0 0 -1 0 0.9244386 -0.3813309 0 0.9244386 -0.3813309 0 -0.7456068 -0.6663861 0 -0.7456068 -0.6663861 0 0 -1 0 0 -1 0 0.9793859 -0.2019984 0 0.9793859 -0.2019984 0 -0.7713733 -0.6363829 0 -0.7713733 -0.6363829 0 0.8240418 -0.5665289 0 0.8240418 -0.5665289 0 -0.4882316 -0.8727141 0 -0.4882316 -0.8727141 0 0.9800815 -0.1985955 0 0.9800815 -0.1985955 0 0.9997764 0.02114925 0 0.9997764 0.02114925 0 0.9510341 0.309086 0 0.9510341 0.309086 0 0.7713733 0.6363829 0 0.7713733 0.6363829 0 0 1 0 0 1 0 -0.4762284 0.8793216 0 -0.4762284 0.8793216 0 0.09525871 0.9954525 0 0.09525871 0.9954525 0 -0.62852 0.7777934 0 -0.62852 0.7777934 0 0.2693803 0.9630339 0 0.2693803 0.9630339 0 -0.973326 0.2294269 0 -0.973326 0.2294269 0 -0.9973219 -0.073137 0 -0.9973219 -0.073137 0 -0.955326 -0.2955539 0 -0.955326 -0.2955539 0 -0.8174277 -0.5760311 0 -0.8174277 -0.5760311 0 </float_array>
          <technique_common>
            <accessor source="#Collider-mesh-normals-array" count="50" stride="3">
              <param name="X" type="float"/>
              <param name="Y" type="float"/>
              <param name="Z" type="float"/>
            </accessor>
          </technique_common>
        </source>

        <vertices id="Collider-mesh-vertices">
          <input semantic="POSITION" source="#Collider-mesh-positions"/>
        </vertices>
        <polylist material="Material1" count="50">
          <input semantic="VERTEX" source="#Collider-mesh-vertices" offset="0"/>
          <input semantic="NORMAL" source="#Collider-mesh-normals" offset="1"/>
          <vcount>3 3 3 3 3 3 3 3 3 3 3 3 3 3 3 3 3 3 3 3 3 3 3 3 3 3 3 3 3 3 3 3 3 3 3 3 3 3 3 3 3 3 3 3 3 3 3 3 3 3 </vcount>
          <p>0 0 1 0 2 0 2 1 1 1 3 1 2 2 3 2 4 2 4 3 3 3 5 3 4 4 5 4 6 4 6 5 5 5 7 5 6 6 7 6 8 6 8 7 7 7 9 7 8 8 9 8 10 8 10 9 9 9 11 9 10 10 11 10 12 10 12 11 11 11 13 11 12 12 13 12 14 12 14 13 13 13 15 13 14 14 15 14 16 14 16 15 15 15 17 15 16 16 17 16 18 16 18 17 17 17 19 17 18 18 19 18 20 18 20 19 19 19 21 19 20 20 21 20 22 20 22 21 21 21 23 21 22 22 23 22 24 22 24 23 23 23 25 23 24 24 25 24 26 24 26 25 25 25 27 25 26 26 27 26 28 26 28 27 27 27 29 27 28 28 29 28 30 28 30 29 29 29 31 29 30 30 31 30 32 30 32 31 31 31 33 31 32 32 33 32 34 32 34 33 33 33 35 33 34 34 35 34 36 34 36 35 35 35 37 35 36 36 37 36 38 36 38 37 37 37 39 37 38 38 39 38 40 38 40 39 39 39 41 39 40 40 41 40 42 40 42 41 41 41 43 41 42 42 43 42 44 42 44 43 43 43 45 43 44 44 45 44 46 44 46 45 45 45 47 45 46 46 47 46 48 46 48 47 47 47 49 47 48 48 49 48 0 48 0 49 49 49 1 49 </p>
        </polylist>
      </mesh>
      <extra><technique profile="MAYA"><double_sided>1</double_sided></technique></extra>
    </geometry>
  </library_geometries>
  <library_visual_scenes>
    <visual_scene id="Scene" name="Scene">
      <node id="Collider" type="NODE">
        <translate sid="location">0 0 0</translate>
        <rotate sid="rotationZ">0 0 1 0</rotate>
        <rotate sid="rotationY">0 1 0 0</rotate>
        <rotate sid="rotationX">1 0 0 0</rotate>
        <scale sid="scale">1 1 1</scale>
        <instance_geometry url="#Collider-mesh">
        </instance_geometry>
      </node>
    </visual_scene>
  </library_visual_scenes>
  <scene>
    <instance_visual_scene url="#Scene"/>
  </scene>
</COLLADA>
