<?xml version="1.0" encoding="utf-8"?>
<COLLADA xmlns="http://www.collada.org/2005/11/COLLADASchema" version="1.4.1">
  <asset>
    <contributor>
      <author>Automatically generated</author>
      <authoring_tool>Pixelcloud Games Unity3D Extension</authoring_tool>
    </contributor>
    <created>2016-02-28T16:52:46.2027795Z</created>
    <modified>2016-02-28T16:52:46.2027795Z</modified>
    <unit name="meter" meter="1"/>
    <up_axis>Z_UP</up_axis>
  </asset>
  <library_geometries>
    <geometry id="Collider-mesh">
      <mesh>
        <source id="Collider-mesh-positions">
          <float_array id="Collider-mesh-positions-array" count="144">-0.0546875 -0.4296875 -1 -0.0546875 -0.4296875 1 -0.1601563 -0.3632813 -1 -0.1601563 -0.3632813 1 -0.2460938 -0.1992188 -1 -0.2460938 -0.1992188 1 -0.375 -0.1914063 -1 -0.375 -0.1914063 1 -0.4296875 -0.15625 -1 -0.4296875 -0.15625 1 -0.4492187 0.0390625 -1 -0.4492187 0.0390625 1 -0.484375 0.1015625 -1 -0.484375 0.1015625 1 -0.4414063 0.3203125 -1 -0.4414063 0.3203125 1 -0.3203125 0.3554688 -1 -0.3203125 0.3554688 1 -0.2382813 0.3476563 -1 -0.2382813 0.3476563 1 -0.1445313 0.05078125 -1 -0.1445313 0.05078125 1 -0.0859375 -0.0078125 -1 -0.0859375 -0.0078125 1 -0.01171875 -0.02734375 -1 -0.01171875 -0.02734375 1 0.01953125 -0.0078125 -1 0.01953125 -0.0078125 1 0.15625 0.3554688 -1 0.15625 0.3554688 1 0.21875 0.3789063 -1 0.21875 0.3789063 1 0.421875 0.359375 -1 0.421875 0.359375 1 0.4492187 0.3242188 -1 0.4492187 0.3242188 1 0.4257813 0.1679688 -1 0.4257813 0.1679688 1 0.4375 0.07421875 -1 0.4375 0.07421875 1 0.390625 -0.0859375 -1 0.390625 -0.0859375 1 0.2929688 -0.15625 -1 0.2929688 -0.15625 1 0.1953125 -0.1757813 -1 0.1953125 -0.1757813 1 0.1289063 -0.328125 -1 0.1289063 -0.328125 1 </float_array>
          <technique_common>
            <accessor source="#Collider-mesh-positions-array" count="48" stride="3">
              <param name="X" type="float"/>
              <param name="Y" type="float"/>
              <param name="Z" type="float"/>
            </accessor>
          </technique_common>
        </source>
        <source id="Collider-mesh-normals">
          <float_array id="Collider-mesh-normals-array" count="144">0.5328133 -0.8462328 0 0.5328133 -0.8462328 0 0.8858315 -0.464007 0 0.8858315 -0.464007 0 0.06049506 -0.9981685 0 0.06049506 -0.9981685 0 0.5407576 -0.8411785 0 0.5407576 -0.8411785 0 0.9950372 -0.09950372 0 0.9950372 -0.09950372 0 0.8715755 -0.4902613 0 0.8715755 -0.4902613 0 0.9812488 0.1927453 0 0.9812488 0.1927453 0 0.2788102 0.9603462 0 0.2788102 0.9603462 0 -0.0948091 0.9954955 0 -0.0948091 0.9954955 0 -0.9535827 0.3011314 0 -0.9535827 0.3011314 0 -0.7071068 0.7071068 0 -0.7071068 0.7071068 0 -0.2544933 0.9670745 0 -0.2544933 0.9670745 0 0.529999 0.8479983 0 0.529999 0.8479983 0 0.9359149 0.352226 0 0.9359149 0.352226 0 0.3511235 0.9363292 0 0.3511235 0.9363292 0 -0.09571241 0.9954091 0 -0.09571241 0.9954091 0 -0.7893522 0.6139406 0 -0.7893522 0.6139406 0 -0.9889363 -0.1483404 0 -0.9889363 -0.1483404 0 -0.9922779 0.1240347 0 -0.9922779 0.1240347 0 -0.9597374 -0.2808987 0 -0.9597374 -0.2808987 0 -0.5843047 -0.8115343 0 -0.5843047 -0.8115343 0 -0.1961161 -0.9805806 0 -0.1961161 -0.9805806 0 -0.916696 -0.3995854 0 -0.916696 -0.3995854 0 -0.4840614 -0.875034 0 -0.4840614 -0.875034 0 </float_array>
          <technique_common>
            <accessor source="#Collider-mesh-normals-array" count="48" stride="3">
              <param name="X" type="float"/>
              <param name="Y" type="float"/>
              <param name="Z" type="float"/>
            </accessor>
          </technique_common>
        </source>

        <vertices id="Collider-mesh-vertices">
          <input semantic="POSITION" source="#Collider-mesh-positions"/>
        </vertices>
        <polylist material="Material1" count="48">
          <input semantic="VERTEX" source="#Collider-mesh-vertices" offset="0"/>
          <input semantic="NORMAL" source="#Collider-mesh-normals" offset="1"/>
          <vcount>3 3 3 3 3 3 3 3 3 3 3 3 3 3 3 3 3 3 3 3 3 3 3 3 3 3 3 3 3 3 3 3 3 3 3 3 3 3 3 3 3 3 3 3 3 3 3 3 </vcount>
          <p>0 0 1 0 2 0 2 1 1 1 3 1 2 2 3 2 4 2 4 3 3 3 5 3 4 4 5 4 6 4 6 5 5 5 7 5 6 6 7 6 8 6 8 7 7 7 9 7 8 8 9 8 10 8 10 9 9 9 11 9 10 10 11 10 12 10 12 11 11 11 13 11 12 12 13 12 14 12 14 13 13 13 15 13 14 14 15 14 16 14 16 15 15 15 17 15 16 16 17 16 18 16 18 17 17 17 19 17 18 18 19 18 20 18 20 19 19 19 21 19 20 20 21 20 22 20 22 21 21 21 23 21 22 22 23 22 24 22 24 23 23 23 25 23 24 24 25 24 26 24 26 25 25 25 27 25 26 26 27 26 28 26 28 27 27 27 29 27 28 28 29 28 30 28 30 29 29 29 31 29 30 30 31 30 32 30 32 31 31 31 33 31 32 32 33 32 34 32 34 33 33 33 35 33 34 34 35 34 36 34 36 35 35 35 37 35 36 36 37 36 38 36 38 37 37 37 39 37 38 38 39 38 40 38 40 39 39 39 41 39 40 40 41 40 42 40 42 41 41 41 43 41 42 42 43 42 44 42 44 43 43 43 45 43 44 44 45 44 46 44 46 45 45 45 47 45 46 46 47 46 0 46 0 47 47 47 1 47 </p>
        </polylist>
      </mesh>
      <extra><technique profile="MAYA"><double_sided>1</double_sided></technique></extra>
    </geometry>
  </library_geometries>
  <library_visual_scenes>
    <visual_scene id="Scene" name="Scene">
      <node id="Collider" type="NODE">
        <translate sid="location">0 0 0</translate>
        <rotate sid="rotationZ">0 0 1 0</rotate>
        <rotate sid="rotationY">0 1 0 0</rotate>
        <rotate sid="rotationX">1 0 0 0</rotate>
        <scale sid="scale">1 1 1</scale>
        <instance_geometry url="#Collider-mesh">
        </instance_geometry>
      </node>
    </visual_scene>
  </library_visual_scenes>
  <scene>
    <instance_visual_scene url="#Scene"/>
  </scene>
</COLLADA>
