<?xml version="1.0" encoding="utf-8"?>
<COLLADA xmlns="http://www.collada.org/2005/11/COLLADASchema" version="1.4.1">
  <asset>
    <contributor>
      <author>Automatically generated</author>
      <authoring_tool>Pixelcloud Games Unity3D Extension</authoring_tool>
    </contributor>
    <created>2016-02-28T16:40:19.1767925Z</created>
    <modified>2016-02-28T16:40:19.1767925Z</modified>
    <unit name="meter" meter="1"/>
    <up_axis>Z_UP</up_axis>
  </asset>
  <library_geometries>
    <geometry id="Collider-mesh">
      <mesh>
        <source id="Collider-mesh-positions">
          <float_array id="Collider-mesh-positions-array" count="156">-0.2575758 -0.4868421 -1 -0.2575758 -0.4868421 1 -0.2575758 -0.5 -1 -0.2575758 -0.5 1 -0.344697 -0.5 -1 -0.344697 -0.5 1 -0.4204546 -0.4868421 -1 -0.4204546 -0.4868421 1 -0.4356061 -0.4605263 -1 -0.4356061 -0.4605263 1 -0.439394 -0.1315789 -1 -0.439394 -0.1315789 1 -0.5 0.118421 -1 -0.5 0.118421 1 -0.3977273 0.4605263 -1 -0.3977273 0.4605263 1 -0.3257576 0.4473684 -1 -0.3257576 0.4473684 1 -0.2386364 0.1447368 -1 -0.2386364 0.1447368 1 -0.1439394 0.1447368 -1 -0.1439394 0.1447368 1 -0.1439394 0.1578947 -1 -0.1439394 0.1578947 1 -0.06818184 0.1578947 -1 -0.06818184 0.1578947 1 -0.06818184 0.2894737 -1 -0.06818184 0.2894737 1 -0.01893941 0.5 -1 -0.01893941 0.5 1 0.4015152 0.5 -1 0.4015152 0.5 1 0.4962121 0.1842105 -1 0.4962121 0.1842105 1 0.4962121 0.1315789 -1 0.4962121 0.1315789 1 0.3636364 -0.3289474 -1 0.3636364 -0.3289474 1 0.1893939 -0.3289474 -1 0.1893939 -0.3289474 1 0.1704545 -0.4078947 -1 0.1704545 -0.4078947 1 0.09848484 -0.4078947 -1 0.09848484 -0.4078947 1 0.06818181 -0.4736842 -1 0.06818181 -0.4736842 1 -0.07196972 -0.4736842 -1 -0.07196972 -0.4736842 1 -0.08712123 -0.4078947 -1 -0.08712123 -0.4078947 1 -0.2348485 -0.4078947 -1 -0.2348485 -0.4078947 1 </float_array>
          <technique_common>
            <accessor source="#Collider-mesh-positions-array" count="52" stride="3">
              <param name="X" type="float"/>
              <param name="Y" type="float"/>
              <param name="Z" type="float"/>
            </accessor>
          </technique_common>
        </source>
        <source id="Collider-mesh-normals">
          <float_array id="Collider-mesh-normals-array" count="156">-1 0 0 -1 0 0 0 -1 0 0 -1 0 0.1711225 -0.9852498 0 0.1711225 -0.9852498 0 0.8666221 -0.498965 0 0.8666221 -0.498965 0 0.9999337 -0.01151438 0 0.9999337 -0.01151438 0 0.9718502 -0.2355999 0 0.9718502 -0.2355999 0 0.9581025 0.2864256 0 0.9581025 0.2864256 0 -0.1798442 0.983695 0 -0.1798442 0.983695 0 -0.9609726 0.2766436 0 -0.9609726 0.2766436 0 0 1 0 0 1 0 1 0 0 1 0 0 0 1 0 0 1 0 1 0 0 1 0 0 0.9737186 0.2277543 0 0.9737186 0.2277543 0 0 1 0 0 1 0 -0.9578596 0.287237 0 -0.9578596 0.287237 0 -1 0 0 -1 0 0 -0.9609725 -0.2766436 0 -0.9609725 -0.2766436 0 0 -1 0 0 -1 0 -0.9724095 -0.2332802 0 -0.9724095 -0.2332802 0 0 -1 0 0 -1 0 -0.9082813 -0.4183598 0 -0.9082813 -0.4183598 0 0 -1 0 0 -1 0 0.9744906 -0.2244281 0 0.9744906 -0.2244281 0 0 -1 0 0 -1 0 -0.9609725 -0.2766437 0 -0.9609725 -0.2766437 0 </float_array>
          <technique_common>
            <accessor source="#Collider-mesh-normals-array" count="52" stride="3">
              <param name="X" type="float"/>
              <param name="Y" type="float"/>
              <param name="Z" type="float"/>
            </accessor>
          </technique_common>
        </source>

        <vertices id="Collider-mesh-vertices">
          <input semantic="POSITION" source="#Collider-mesh-positions"/>
        </vertices>
        <polylist material="Material1" count="52">
          <input semantic="VERTEX" source="#Collider-mesh-vertices" offset="0"/>
          <input semantic="NORMAL" source="#Collider-mesh-normals" offset="1"/>
          <vcount>3 3 3 3 3 3 3 3 3 3 3 3 3 3 3 3 3 3 3 3 3 3 3 3 3 3 3 3 3 3 3 3 3 3 3 3 3 3 3 3 3 3 3 3 3 3 3 3 3 3 3 3 </vcount>
          <p>0 0 1 0 2 0 2 1 1 1 3 1 2 2 3 2 4 2 4 3 3 3 5 3 4 4 5 4 6 4 6 5 5 5 7 5 6 6 7 6 8 6 8 7 7 7 9 7 8 8 9 8 10 8 10 9 9 9 11 9 10 10 11 10 12 10 12 11 11 11 13 11 12 12 13 12 14 12 14 13 13 13 15 13 14 14 15 14 16 14 16 15 15 15 17 15 16 16 17 16 18 16 18 17 17 17 19 17 18 18 19 18 20 18 20 19 19 19 21 19 20 20 21 20 22 20 22 21 21 21 23 21 22 22 23 22 24 22 24 23 23 23 25 23 24 24 25 24 26 24 26 25 25 25 27 25 26 26 27 26 28 26 28 27 27 27 29 27 28 28 29 28 30 28 30 29 29 29 31 29 30 30 31 30 32 30 32 31 31 31 33 31 32 32 33 32 34 32 34 33 33 33 35 33 34 34 35 34 36 34 36 35 35 35 37 35 36 36 37 36 38 36 38 37 37 37 39 37 38 38 39 38 40 38 40 39 39 39 41 39 40 40 41 40 42 40 42 41 41 41 43 41 42 42 43 42 44 42 44 43 43 43 45 43 44 44 45 44 46 44 46 45 45 45 47 45 46 46 47 46 48 46 48 47 47 47 49 47 48 48 49 48 50 48 50 49 49 49 51 49 50 50 51 50 0 50 0 51 51 51 1 51 </p>
        </polylist>
      </mesh>
      <extra><technique profile="MAYA"><double_sided>1</double_sided></technique></extra>
    </geometry>
  </library_geometries>
  <library_visual_scenes>
    <visual_scene id="Scene" name="Scene">
      <node id="Collider" type="NODE">
        <translate sid="location">0 0 0</translate>
        <rotate sid="rotationZ">0 0 1 0</rotate>
        <rotate sid="rotationY">0 1 0 0</rotate>
        <rotate sid="rotationX">1 0 0 0</rotate>
        <scale sid="scale">1 1 1</scale>
        <instance_geometry url="#Collider-mesh">
        </instance_geometry>
      </node>
    </visual_scene>
  </library_visual_scenes>
  <scene>
    <instance_visual_scene url="#Scene"/>
  </scene>
</COLLADA>
