<?xml version="1.0" encoding="utf-8"?>
<COLLADA xmlns="http://www.collada.org/2005/11/COLLADASchema" version="1.4.1">
  <asset>
    <contributor>
      <author>Automatically generated</author>
      <authoring_tool>Pixelcloud Games Unity3D Extension</authoring_tool>
    </contributor>
    <created>2016-02-28T16:41:24.8338750Z</created>
    <modified>2016-02-28T16:41:24.8338750Z</modified>
    <unit name="meter" meter="1"/>
    <up_axis>Z_UP</up_axis>
  </asset>
  <library_geometries>
    <geometry id="Collider-mesh">
      <mesh>
        <source id="Collider-mesh-positions">
          <float_array id="Collider-mesh-positions-array" count="144">0.4118644 -0.4950739 -1 0.4118644 -0.4950739 1 0.2694915 -0.5 -1 0.2694915 -0.5 1 0.1745763 -0.3571429 -1 0.1745763 -0.3571429 1 0.07627119 -0.3522168 -1 0.07627119 -0.3522168 1 0.06949153 -0.1403941 -1 0.06949153 -0.1403941 1 -0.01525423 -0.1403941 -1 -0.01525423 -0.1403941 1 -0.02203389 -0.09113301 -1 -0.02203389 -0.09113301 1 -0.06271186 -0.03694582 -1 -0.06271186 -0.03694582 1 -0.2762712 -0.03201971 -1 -0.2762712 -0.03201971 1 -0.320339 0.0369458 -1 -0.320339 0.0369458 1 -0.4491526 0.0369458 -1 -0.4491526 0.0369458 1 -0.5 0.1108374 -1 -0.5 0.1108374 1 -0.4898305 0.2881773 -1 -0.4898305 0.2881773 1 -0.2661017 0.2881773 -1 -0.2661017 0.2881773 1 -0.1338983 0.5 -1 -0.1338983 0.5 1 -0.1169492 0.5 -1 -0.1169492 0.5 1 -0.04915253 0.3965517 -1 -0.04915253 0.3965517 1 -0.00508474 0.455665 -1 -0.00508474 0.455665 1 0.03559323 0.4014778 -1 0.03559323 0.4014778 1 0.03559323 0.3571428 -1 0.03559323 0.3571428 1 0.1372881 0.2093596 -1 0.1372881 0.2093596 1 0.1372881 -0.0221675 -1 0.1372881 -0.0221675 1 0.2728814 -0.03201971 -1 0.2728814 -0.03201971 1 0.4966102 -0.362069 -1 0.4966102 -0.362069 1 </float_array>
          <technique_common>
            <accessor source="#Collider-mesh-positions-array" count="48" stride="3">
              <param name="X" type="float"/>
              <param name="Y" type="float"/>
              <param name="Z" type="float"/>
            </accessor>
          </technique_common>
        </source>
        <source id="Collider-mesh-normals">
          <float_array id="Collider-mesh-normals-array" count="144">-0.0345794 -0.9994019 0 -0.0345794 -0.9994019 0 0.832918 -0.5533963 0 0.832918 -0.5533963 0 0.05004768 -0.9987469 0 0.05004768 -0.9987469 0 0.9994882 -0.03198994 0 0.9994882 -0.03198994 0 0 -1 0 0 -1 0 0.9906618 -0.1363419 0 0.9906618 -0.1363419 0 0.7997338 -0.6003548 0 0.7997338 -0.6003548 0 0.02306056 -0.9997341 0 0.02306056 -0.9997341 0 0.8426602 -0.5384457 0 0.8426602 -0.5384457 0 0 -1 0 0 -1 0 0.8237973 -0.5668844 0 0.8237973 -0.5668844 0 0.9983598 0.05725066 0 0.9983598 0.05725066 0 0 1 0 0 1 0 0.8483325 0.5294638 0 0.8483325 0.5294638 0 0 1 0 0 1 0 -0.8363864 0.5481403 0 -0.8363864 0.5481403 0 0.8017361 0.5976781 0 0.8017361 0.5976781 0 -0.7997338 0.6003547 0 -0.7997338 0.6003547 0 -1 0 0 -1 0 0 -0.8237974 0.5668843 0 -0.8237974 0.5668843 0 -1 0 0 -1 0 0 -0.07246904 0.9973707 0 -0.07246904 0.9973707 0 -0.8277475 0.5611009 0 -0.8277475 0.5611009 0 -0.8433561 -0.5373551 0 -0.8433561 -0.5373551 0 </float_array>
          <technique_common>
            <accessor source="#Collider-mesh-normals-array" count="48" stride="3">
              <param name="X" type="float"/>
              <param name="Y" type="float"/>
              <param name="Z" type="float"/>
            </accessor>
          </technique_common>
        </source>

        <vertices id="Collider-mesh-vertices">
          <input semantic="POSITION" source="#Collider-mesh-positions"/>
        </vertices>
        <polylist material="Material1" count="48">
          <input semantic="VERTEX" source="#Collider-mesh-vertices" offset="0"/>
          <input semantic="NORMAL" source="#Collider-mesh-normals" offset="1"/>
          <vcount>3 3 3 3 3 3 3 3 3 3 3 3 3 3 3 3 3 3 3 3 3 3 3 3 3 3 3 3 3 3 3 3 3 3 3 3 3 3 3 3 3 3 3 3 3 3 3 3 </vcount>
          <p>0 0 1 0 2 0 2 1 1 1 3 1 2 2 3 2 4 2 4 3 3 3 5 3 4 4 5 4 6 4 6 5 5 5 7 5 6 6 7 6 8 6 8 7 7 7 9 7 8 8 9 8 10 8 10 9 9 9 11 9 10 10 11 10 12 10 12 11 11 11 13 11 12 12 13 12 14 12 14 13 13 13 15 13 14 14 15 14 16 14 16 15 15 15 17 15 16 16 17 16 18 16 18 17 17 17 19 17 18 18 19 18 20 18 20 19 19 19 21 19 20 20 21 20 22 20 22 21 21 21 23 21 22 22 23 22 24 22 24 23 23 23 25 23 24 24 25 24 26 24 26 25 25 25 27 25 26 26 27 26 28 26 28 27 27 27 29 27 28 28 29 28 30 28 30 29 29 29 31 29 30 30 31 30 32 30 32 31 31 31 33 31 32 32 33 32 34 32 34 33 33 33 35 33 34 34 35 34 36 34 36 35 35 35 37 35 36 36 37 36 38 36 38 37 37 37 39 37 38 38 39 38 40 38 40 39 39 39 41 39 40 40 41 40 42 40 42 41 41 41 43 41 42 42 43 42 44 42 44 43 43 43 45 43 44 44 45 44 46 44 46 45 45 45 47 45 46 46 47 46 0 46 0 47 47 47 1 47 </p>
        </polylist>
      </mesh>
      <extra><technique profile="MAYA"><double_sided>1</double_sided></technique></extra>
    </geometry>
  </library_geometries>
  <library_visual_scenes>
    <visual_scene id="Scene" name="Scene">
      <node id="Collider" type="NODE">
        <translate sid="location">0 0 0</translate>
        <rotate sid="rotationZ">0 0 1 0</rotate>
        <rotate sid="rotationY">0 1 0 0</rotate>
        <rotate sid="rotationX">1 0 0 0</rotate>
        <scale sid="scale">1 1 1</scale>
        <instance_geometry url="#Collider-mesh">
        </instance_geometry>
      </node>
    </visual_scene>
  </library_visual_scenes>
  <scene>
    <instance_visual_scene url="#Scene"/>
  </scene>
</COLLADA>
