<?xml version="1.0" encoding="utf-8"?>
<COLLADA xmlns="http://www.collada.org/2005/11/COLLADASchema" version="1.4.1">
  <asset>
    <contributor>
      <author>Automatically generated</author>
      <authoring_tool>Pixelcloud Games Unity3D Extension</authoring_tool>
    </contributor>
    <created>2016-02-28T16:41:11.9472207Z</created>
    <modified>2016-02-28T16:41:11.9472207Z</modified>
    <unit name="meter" meter="1"/>
    <up_axis>Z_UP</up_axis>
  </asset>
  <library_geometries>
    <geometry id="Collider-mesh">
      <mesh>
        <source id="Collider-mesh-positions">
          <float_array id="Collider-mesh-positions-array" count="120">-0.4955947 0.120155 -1 -0.4955947 0.120155 1 -0.4735683 0.2364341 -1 -0.4735683 0.2364341 1 -0.4118943 0.251938 -1 -0.4118943 0.251938 1 -0.2180617 0.4999999 -1 -0.2180617 0.4999999 1 0.02863431 0.4612403 -1 0.02863431 0.4612403 1 0.1431717 0.492248 -1 0.1431717 0.492248 1 0.3986783 0.2751938 -1 0.3986783 0.2751938 1 0.4999999 0.02713181 -1 0.4999999 0.02713181 1 0.3942731 -0.1434108 -1 0.3942731 -0.1434108 1 0.2621145 -0.1511628 -1 0.2621145 -0.1511628 1 0.1740088 -0.4612403 -1 0.1740088 -0.4612403 1 0.1211454 -0.4999999 -1 0.1211454 -0.4999999 1 0.06828193 -0.2054264 -1 0.06828193 -0.2054264 1 -0.01982379 -0.3449612 -1 -0.01982379 -0.3449612 1 -0.05506608 -0.2829458 -1 -0.05506608 -0.2829458 1 -0.1299559 -0.4457364 -1 -0.1299559 -0.4457364 1 -0.2180617 -0.1976744 -1 -0.2180617 -0.1976744 1 -0.3237885 -0.2054264 -1 -0.3237885 -0.2054264 1 -0.3810572 -0.1046512 -1 -0.3810572 -0.1046512 1 -0.4735683 -0.05813956 -1 -0.4735683 -0.05813956 1 </float_array>
          <technique_common>
            <accessor source="#Collider-mesh-positions-array" count="40" stride="3">
              <param name="X" type="float"/>
              <param name="Y" type="float"/>
              <param name="Z" type="float"/>
            </accessor>
          </technique_common>
        </source>
        <source id="Collider-mesh-normals">
          <float_array id="Collider-mesh-normals-array" count="120">0.1861175 -0.9825276 0 0.1861175 -0.9825276 0 0.9698257 -0.243799 0 0.9698257 -0.243799 0 0.6157114 -0.7879718 0 0.6157114 -0.7879718 0 0.9878813 0.1552112 0 0.9878813 0.1552112 0 0.9652536 -0.261315 0 0.9652536 -0.261315 0 0.7621253 0.6474296 0 0.7621253 0.6474296 0 0.3781267 0.9257538 0 0.3781267 0.9257538 0 -0.5269052 0.849924 0 -0.5269052 0.849924 0 -0.9982842 0.05855559 0 -0.9982842 0.05855559 0 -0.2733216 0.9619228 0 -0.2733216 0.9619228 0 -0.8064548 0.5912958 0 -0.8064548 0.5912958 0 -0.1766357 -0.9842763 0 -0.1766357 -0.9842763 0 -0.5338996 0.8455479 0 -0.5338996 0.8455479 0 -0.4940754 -0.869419 0 -0.4940754 -0.869419 0 -0.4179339 0.9084774 0 -0.4179339 0.9084774 0 -0.3346923 -0.9423275 0 -0.3346923 -0.9423275 0 -0.9973229 0.07312416 0 -0.9973229 0.07312416 0 -0.4940751 -0.8694192 0 -0.4940751 -0.8694192 0 -0.8934357 -0.4491913 0 -0.8934357 -0.4491913 0 -0.1226074 -0.9924553 0 -0.1226074 -0.9924553 0 </float_array>
          <technique_common>
            <accessor source="#Collider-mesh-normals-array" count="40" stride="3">
              <param name="X" type="float"/>
              <param name="Y" type="float"/>
              <param name="Z" type="float"/>
            </accessor>
          </technique_common>
        </source>

        <vertices id="Collider-mesh-vertices">
          <input semantic="POSITION" source="#Collider-mesh-positions"/>
        </vertices>
        <polylist material="Material1" count="40">
          <input semantic="VERTEX" source="#Collider-mesh-vertices" offset="0"/>
          <input semantic="NORMAL" source="#Collider-mesh-normals" offset="1"/>
          <vcount>3 3 3 3 3 3 3 3 3 3 3 3 3 3 3 3 3 3 3 3 3 3 3 3 3 3 3 3 3 3 3 3 3 3 3 3 3 3 3 3 </vcount>
          <p>0 0 1 0 2 0 2 1 1 1 3 1 2 2 3 2 4 2 4 3 3 3 5 3 4 4 5 4 6 4 6 5 5 5 7 5 6 6 7 6 8 6 8 7 7 7 9 7 8 8 9 8 10 8 10 9 9 9 11 9 10 10 11 10 12 10 12 11 11 11 13 11 12 12 13 12 14 12 14 13 13 13 15 13 14 14 15 14 16 14 16 15 15 15 17 15 16 16 17 16 18 16 18 17 17 17 19 17 18 18 19 18 20 18 20 19 19 19 21 19 20 20 21 20 22 20 22 21 21 21 23 21 22 22 23 22 24 22 24 23 23 23 25 23 24 24 25 24 26 24 26 25 25 25 27 25 26 26 27 26 28 26 28 27 27 27 29 27 28 28 29 28 30 28 30 29 29 29 31 29 30 30 31 30 32 30 32 31 31 31 33 31 32 32 33 32 34 32 34 33 33 33 35 33 34 34 35 34 36 34 36 35 35 35 37 35 36 36 37 36 38 36 38 37 37 37 39 37 38 38 39 38 0 38 0 39 39 39 1 39 </p>
        </polylist>
      </mesh>
      <extra><technique profile="MAYA"><double_sided>1</double_sided></technique></extra>
    </geometry>
  </library_geometries>
  <library_visual_scenes>
    <visual_scene id="Scene" name="Scene">
      <node id="Collider" type="NODE">
        <translate sid="location">0 0 0</translate>
        <rotate sid="rotationZ">0 0 1 0</rotate>
        <rotate sid="rotationY">0 1 0 0</rotate>
        <rotate sid="rotationX">1 0 0 0</rotate>
        <scale sid="scale">1 1 1</scale>
        <instance_geometry url="#Collider-mesh">
        </instance_geometry>
      </node>
    </visual_scene>
  </library_visual_scenes>
  <scene>
    <instance_visual_scene url="#Scene"/>
  </scene>
</COLLADA>
