<?xml version="1.0" encoding="utf-8"?>
<COLLADA xmlns="http://www.collada.org/2005/11/COLLADASchema" version="1.4.1">
  <asset>
    <contributor>
      <author>Automatically generated</author>
      <authoring_tool>Pixelcloud Games Unity3D Extension</authoring_tool>
    </contributor>
    <created>2016-02-28T16:41:50.4904327Z</created>
    <modified>2016-02-28T16:41:50.4904327Z</modified>
    <unit name="meter" meter="1"/>
    <up_axis>Z_UP</up_axis>
  </asset>
  <library_geometries>
    <geometry id="Collider-mesh">
      <mesh>
        <source id="Collider-mesh-positions">
          <float_array id="Collider-mesh-positions-array" count="120">0.302521 -0.494152 -1 0.302521 -0.494152 1 0.04201678 -0.371345 -1 0.04201678 -0.371345 1 -0.1806723 -0.131579 -1 -0.1806723 -0.131579 1 -0.3571429 -0.08479532 -1 -0.3571429 -0.08479532 1 -0.4663866 0.008771934 -1 -0.4663866 0.008771934 1 -0.5000001 0.07309942 -1 -0.5000001 0.07309942 1 -0.4831933 0.4415205 -1 -0.4831933 0.4415205 1 -0.3361345 0.494152 -1 -0.3361345 0.494152 1 -0.2731093 0.4298246 -1 -0.2731093 0.4298246 1 -0.277311 0.3538012 -1 -0.277311 0.3538012 1 -0.05042019 0.3596491 -1 -0.05042019 0.3596491 1 0.004201655 0.1725146 -1 0.004201655 0.1725146 1 0.1092437 0.1783626 -1 0.1092437 0.1783626 1 0.1512605 0.125731 -1 0.1512605 0.125731 1 0.1428571 -0.0730994 -1 0.1428571 -0.0730994 1 0.3403361 -0.0497076 -1 0.3403361 -0.0497076 1 0.4117647 -0.1023392 -1 0.4117647 -0.1023392 1 0.4789916 -0.2076023 -1 0.4789916 -0.2076023 1 0.4957983 -0.3362573 -1 0.4957983 -0.3362573 1 0.4495798 -0.4239766 -1 0.4495798 -0.4239766 1 </float_array>
          <technique_common>
            <accessor source="#Collider-mesh-positions-array" count="40" stride="3">
              <param name="X" type="float"/>
              <param name="Y" type="float"/>
              <param name="Z" type="float"/>
            </accessor>
          </technique_common>
        </source>
        <source id="Collider-mesh-normals">
          <float_array id="Collider-mesh-normals-array" count="120">0.4264131 -0.9045285 0 0.4264131 -0.9045285 0 0.7327186 -0.6805317 0 0.7327186 -0.6805317 0 0.2562551 -0.9666092 0 0.2562551 -0.9666092 0 0.6505099 -0.7594978 0 0.6505099 -0.7594978 0 0.8862949 -0.4631212 0 0.8862949 -0.4631212 0 0.998961 0.04557085 0 0.998961 0.04557085 0 0.3369641 0.9415175 0 0.3369641 0.9415175 0 -0.7143003 0.6998394 0 -0.7143003 0.6998394 0 -0.9984762 -0.05518406 0 -0.9984762 -0.05518406 0 0.02576566 0.9996681 0 0.02576566 0.9996681 0 -0.9599435 0.2801936 0 -0.9599435 0.2801936 0 0.05558651 0.9984539 0 0.05558651 0.9984539 0 -0.7815092 0.6238937 0 -0.7815092 0.6238937 0 -0.9991081 -0.04222627 0 -0.9991081 -0.04222627 0 0.1176298 0.9930575 0 0.1176298 0.9930575 0 -0.5931989 0.8050559 0 -0.5931989 0.8050559 0 -0.8427855 0.5382495 0 -0.8427855 0.5382495 0 -0.9915751 0.1295335 0 -0.9915751 0.1295335 0 -0.8847085 -0.4661447 0 -0.8847085 -0.4661447 0 -0.4306709 -0.9025091 0 -0.4306709 -0.9025091 0 </float_array>
          <technique_common>
            <accessor source="#Collider-mesh-normals-array" count="40" stride="3">
              <param name="X" type="float"/>
              <param name="Y" type="float"/>
              <param name="Z" type="float"/>
            </accessor>
          </technique_common>
        </source>

        <vertices id="Collider-mesh-vertices">
          <input semantic="POSITION" source="#Collider-mesh-positions"/>
        </vertices>
        <polylist material="Material1" count="40">
          <input semantic="VERTEX" source="#Collider-mesh-vertices" offset="0"/>
          <input semantic="NORMAL" source="#Collider-mesh-normals" offset="1"/>
          <vcount>3 3 3 3 3 3 3 3 3 3 3 3 3 3 3 3 3 3 3 3 3 3 3 3 3 3 3 3 3 3 3 3 3 3 3 3 3 3 3 3 </vcount>
          <p>0 0 1 0 2 0 2 1 1 1 3 1 2 2 3 2 4 2 4 3 3 3 5 3 4 4 5 4 6 4 6 5 5 5 7 5 6 6 7 6 8 6 8 7 7 7 9 7 8 8 9 8 10 8 10 9 9 9 11 9 10 10 11 10 12 10 12 11 11 11 13 11 12 12 13 12 14 12 14 13 13 13 15 13 14 14 15 14 16 14 16 15 15 15 17 15 16 16 17 16 18 16 18 17 17 17 19 17 18 18 19 18 20 18 20 19 19 19 21 19 20 20 21 20 22 20 22 21 21 21 23 21 22 22 23 22 24 22 24 23 23 23 25 23 24 24 25 24 26 24 26 25 25 25 27 25 26 26 27 26 28 26 28 27 27 27 29 27 28 28 29 28 30 28 30 29 29 29 31 29 30 30 31 30 32 30 32 31 31 31 33 31 32 32 33 32 34 32 34 33 33 33 35 33 34 34 35 34 36 34 36 35 35 35 37 35 36 36 37 36 38 36 38 37 37 37 39 37 38 38 39 38 0 38 0 39 39 39 1 39 </p>
        </polylist>
      </mesh>
      <extra><technique profile="MAYA"><double_sided>1</double_sided></technique></extra>
    </geometry>
  </library_geometries>
  <library_visual_scenes>
    <visual_scene id="Scene" name="Scene">
      <node id="Collider" type="NODE">
        <translate sid="location">0 0 0</translate>
        <rotate sid="rotationZ">0 0 1 0</rotate>
        <rotate sid="rotationY">0 1 0 0</rotate>
        <rotate sid="rotationX">1 0 0 0</rotate>
        <scale sid="scale">1 1 1</scale>
        <instance_geometry url="#Collider-mesh">
        </instance_geometry>
      </node>
    </visual_scene>
  </library_visual_scenes>
  <scene>
    <instance_visual_scene url="#Scene"/>
  </scene>
</COLLADA>
