<?xml version="1.0" encoding="utf-8"?>
<COLLADA xmlns="http://www.collada.org/2005/11/COLLADASchema" version="1.4.1">
  <asset>
    <contributor>
      <author>Automatically generated</author>
      <authoring_tool>Pixelcloud Games Unity3D Extension</authoring_tool>
    </contributor>
    <created>2016-02-28T16:52:42.7023089Z</created>
    <modified>2016-02-28T16:52:42.7023089Z</modified>
    <unit name="meter" meter="1"/>
    <up_axis>Z_UP</up_axis>
  </asset>
  <library_geometries>
    <geometry id="Collider-mesh">
      <mesh>
        <source id="Collider-mesh-positions">
          <float_array id="Collider-mesh-positions-array" count="120">-0.1171875 -0.5 -1 -0.1171875 -0.5 1 -0.4765625 -0.5 -1 -0.4765625 -0.5 1 -0.4335938 -0.3181818 -1 -0.4335938 -0.3181818 1 -0.08203125 -0.01010101 -1 -0.08203125 -0.01010101 1 -0.1015625 0.02020202 -1 -0.1015625 0.02020202 1 -0.0546875 0.06565657 -1 -0.0546875 0.06565657 1 -0.05078125 0.1313131 -1 -0.05078125 0.1313131 1 -0.3867188 0.1515152 -1 -0.3867188 0.1515152 1 -0.4140625 0.2121212 -1 -0.4140625 0.2121212 1 -0.2851563 0.3585859 -1 -0.2851563 0.3585859 1 -0.1523438 0.4292929 -1 -0.1523438 0.4292929 1 0.1132813 0.4545455 -1 0.1132813 0.4545455 1 0.2265625 0.4242424 -1 0.2265625 0.4242424 1 0.3984375 0.3131313 -1 0.3984375 0.3131313 1 0.4765625 0.1717172 -1 0.4765625 0.1717172 1 0.109375 0.1313131 -1 0.109375 0.1313131 1 0.1054688 0.005050505 -1 0.1054688 0.005050505 1 -0.1132813 -0.1818182 -1 -0.1132813 -0.1818182 1 -0.1835938 -0.2979798 -1 -0.1835938 -0.2979798 1 -0.1835938 -0.4141414 -1 -0.1835938 -0.4141414 1 </float_array>
          <technique_common>
            <accessor source="#Collider-mesh-positions-array" count="40" stride="3">
              <param name="X" type="float"/>
              <param name="Y" type="float"/>
              <param name="Z" type="float"/>
            </accessor>
          </technique_common>
        </source>
        <source id="Collider-mesh-normals">
          <float_array id="Collider-mesh-normals-array" count="120">0 -1 0 0 -1 0 0.9731923 0.2299927 0 0.9731923 0.2299927 0 0.6590661 0.752085 0 0.6590661 0.752085 0 0.8405378 -0.5417529 0 0.8405378 -0.5417529 0 0.6961459 0.7179004 0 0.6961459 0.7179004 0 0.9982349 0.05939018 0 0.9982349 0.05939018 0 0.06002782 -0.9981967 0 0.06002782 -0.9981967 0 0.9115213 -0.4112528 0 0.9115213 -0.4112528 0 0.7506694 0.660678 0 0.7506694 0.660678 0 0.4699347 0.8827012 0 0.4699347 0.8827012 0 0.0946417 0.9955114 0 0.0946417 0.9955114 0 -0.2584165 0.9660336 0 -0.2584165 0.9660336 0 -0.5428996 0.8397977 0 -0.5428996 0.8397977 0 -0.8753068 0.483568 0 -0.8753068 0.483568 0 -0.1093763 -0.9940004 0 -0.1093763 -0.9940004 0 -0.9995218 -0.03092271 0 -0.9995218 -0.03092271 0 -0.6495255 -0.7603398 0 -0.6495255 -0.7603398 0 -0.8554866 -0.5178251 0 -0.8554866 -0.5178251 0 -1 0 0 -1 0 0 -0.7910131 0.6117992 0 -0.7910131 0.6117992 0 </float_array>
          <technique_common>
            <accessor source="#Collider-mesh-normals-array" count="40" stride="3">
              <param name="X" type="float"/>
              <param name="Y" type="float"/>
              <param name="Z" type="float"/>
            </accessor>
          </technique_common>
        </source>

        <vertices id="Collider-mesh-vertices">
          <input semantic="POSITION" source="#Collider-mesh-positions"/>
        </vertices>
        <polylist material="Material1" count="40">
          <input semantic="VERTEX" source="#Collider-mesh-vertices" offset="0"/>
          <input semantic="NORMAL" source="#Collider-mesh-normals" offset="1"/>
          <vcount>3 3 3 3 3 3 3 3 3 3 3 3 3 3 3 3 3 3 3 3 3 3 3 3 3 3 3 3 3 3 3 3 3 3 3 3 3 3 3 3 </vcount>
          <p>0 0 1 0 2 0 2 1 1 1 3 1 2 2 3 2 4 2 4 3 3 3 5 3 4 4 5 4 6 4 6 5 5 5 7 5 6 6 7 6 8 6 8 7 7 7 9 7 8 8 9 8 10 8 10 9 9 9 11 9 10 10 11 10 12 10 12 11 11 11 13 11 12 12 13 12 14 12 14 13 13 13 15 13 14 14 15 14 16 14 16 15 15 15 17 15 16 16 17 16 18 16 18 17 17 17 19 17 18 18 19 18 20 18 20 19 19 19 21 19 20 20 21 20 22 20 22 21 21 21 23 21 22 22 23 22 24 22 24 23 23 23 25 23 24 24 25 24 26 24 26 25 25 25 27 25 26 26 27 26 28 26 28 27 27 27 29 27 28 28 29 28 30 28 30 29 29 29 31 29 30 30 31 30 32 30 32 31 31 31 33 31 32 32 33 32 34 32 34 33 33 33 35 33 34 34 35 34 36 34 36 35 35 35 37 35 36 36 37 36 38 36 38 37 37 37 39 37 38 38 39 38 0 38 0 39 39 39 1 39 </p>
        </polylist>
      </mesh>
      <extra><technique profile="MAYA"><double_sided>1</double_sided></technique></extra>
    </geometry>
  </library_geometries>
  <library_visual_scenes>
    <visual_scene id="Scene" name="Scene">
      <node id="Collider" type="NODE">
        <translate sid="location">0 0 0</translate>
        <rotate sid="rotationZ">0 0 1 0</rotate>
        <rotate sid="rotationY">0 1 0 0</rotate>
        <rotate sid="rotationX">1 0 0 0</rotate>
        <scale sid="scale">1 1 1</scale>
        <instance_geometry url="#Collider-mesh">
        </instance_geometry>
      </node>
    </visual_scene>
  </library_visual_scenes>
  <scene>
    <instance_visual_scene url="#Scene"/>
  </scene>
</COLLADA>
