<?xml version="1.0" encoding="utf-8"?>
<COLLADA xmlns="http://www.collada.org/2005/11/COLLADASchema" version="1.4.1">
  <asset>
    <contributor>
      <author>Automatically generated</author>
      <authoring_tool>Pixelcloud Games Unity3D Extension</authoring_tool>
    </contributor>
    <created>2016-02-28T16:52:47.1938202Z</created>
    <modified>2016-02-28T16:52:47.1938202Z</modified>
    <unit name="meter" meter="1"/>
    <up_axis>Z_UP</up_axis>
  </asset>
  <library_geometries>
    <geometry id="Collider-mesh">
      <mesh>
        <source id="Collider-mesh-positions">
          <float_array id="Collider-mesh-positions-array" count="150">0.3877888 -0.4853659 -1 0.3877888 -0.4853659 1 0.2491749 -0.4902439 -1 0.2491749 -0.4902439 1 0.1567657 -0.3487805 -1 0.1567657 -0.3487805 1 0.06105609 -0.3439024 -1 0.06105609 -0.3439024 1 0.05445543 -0.1341463 -1 0.05445543 -0.1341463 1 -0.02805282 -0.1341463 -1 -0.02805282 -0.1341463 1 -0.03465348 -0.08536585 -1 -0.03465348 -0.08536585 1 -0.07425744 -0.03170732 -1 -0.07425744 -0.03170732 1 -0.2821783 -0.02682927 -1 -0.2821783 -0.02682927 1 -0.3250825 0.04146342 -1 -0.3250825 0.04146342 1 -0.450495 0.04146342 -1 -0.450495 0.04146342 1 -0.5000001 0.1146342 -1 -0.5000001 0.1146342 1 -0.490099 0.2902439 -1 -0.490099 0.2902439 1 -0.2722773 0.2902439 -1 -0.2722773 0.2902439 1 -0.2227723 0.392683 -1 -0.2227723 0.392683 1 -0.1435644 0.5 -1 -0.1435644 0.5 1 -0.1270627 0.5 -1 -0.1270627 0.5 1 -0.06105613 0.397561 -1 -0.06105613 0.397561 1 -0.01815183 0.4560976 -1 -0.01815183 0.4560976 1 0.02145213 0.4024391 -1 0.02145213 0.4024391 1 0.02145213 0.3585366 -1 0.02145213 0.3585366 1 0.120462 0.2121951 -1 0.120462 0.2121951 1 0.120462 -0.01707317 -1 0.120462 -0.01707317 1 0.2524752 -0.02682927 -1 0.2524752 -0.02682927 1 0.470297 -0.3536585 -1 0.470297 -0.3536585 1 </float_array>
          <technique_common>
            <accessor source="#Collider-mesh-positions-array" count="50" stride="3">
              <param name="X" type="float"/>
              <param name="Y" type="float"/>
              <param name="Z" type="float"/>
            </accessor>
          </technique_common>
        </source>
        <source id="Collider-mesh-normals">
          <float_array id="Collider-mesh-normals-array" count="150">-0.03516983 -0.9993814 0 -0.03516983 -0.9993814 0 0.8372028 -0.5468924 0 0.8372028 -0.5468924 0 0.05090108 -0.9987037 0 0.05090108 -0.9987037 0 0.9995052 -0.03145269 0 0.9995052 -0.03145269 0 0 -1 0 0 -1 0 0.9909689 -0.1340915 0 0.9909689 -0.1340915 0 0.8045824 -0.5938411 0 0.8045824 -0.5938411 0 0.02345463 -0.9997249 0 0.02345463 -0.9997249 0 0.8467624 -0.5319712 0 0.8467624 -0.5319712 0 0 -1 0 0 -1 0 0.8282459 -0.5603648 0 0.8282459 -0.5603648 0 0.9984144 0.0562914 0 0.9984144 0.0562914 0 0 1 0 0 1 0 0.9003739 0.4351171 0 0.9003739 0.4351171 0 0.8045822 0.5938412 0 0.8045822 0.5938412 0 0 1 0 0 1 0 -0.8406071 0.5416453 0 -0.8406071 0.5416453 0 0.8065531 0.5911617 0 0.8065531 0.5911617 0 -0.8045823 0.5938411 0 -0.8045823 0.5938411 0 -1 0 0 -1 0 0 -0.8282461 0.5603645 0 -0.8282461 0.5603645 0 -1 0 0 -1 0 0 -0.07370146 0.9972803 0 -0.07370146 0.9972803 0 -0.8321259 0.5545868 0 -0.8321259 0.5545868 0 -0.847445 -0.5308832 0 -0.847445 -0.5308832 0 </float_array>
          <technique_common>
            <accessor source="#Collider-mesh-normals-array" count="50" stride="3">
              <param name="X" type="float"/>
              <param name="Y" type="float"/>
              <param name="Z" type="float"/>
            </accessor>
          </technique_common>
        </source>

        <vertices id="Collider-mesh-vertices">
          <input semantic="POSITION" source="#Collider-mesh-positions"/>
        </vertices>
        <polylist material="Material1" count="50">
          <input semantic="VERTEX" source="#Collider-mesh-vertices" offset="0"/>
          <input semantic="NORMAL" source="#Collider-mesh-normals" offset="1"/>
          <vcount>3 3 3 3 3 3 3 3 3 3 3 3 3 3 3 3 3 3 3 3 3 3 3 3 3 3 3 3 3 3 3 3 3 3 3 3 3 3 3 3 3 3 3 3 3 3 3 3 3 3 </vcount>
          <p>0 0 1 0 2 0 2 1 1 1 3 1 2 2 3 2 4 2 4 3 3 3 5 3 4 4 5 4 6 4 6 5 5 5 7 5 6 6 7 6 8 6 8 7 7 7 9 7 8 8 9 8 10 8 10 9 9 9 11 9 10 10 11 10 12 10 12 11 11 11 13 11 12 12 13 12 14 12 14 13 13 13 15 13 14 14 15 14 16 14 16 15 15 15 17 15 16 16 17 16 18 16 18 17 17 17 19 17 18 18 19 18 20 18 20 19 19 19 21 19 20 20 21 20 22 20 22 21 21 21 23 21 22 22 23 22 24 22 24 23 23 23 25 23 24 24 25 24 26 24 26 25 25 25 27 25 26 26 27 26 28 26 28 27 27 27 29 27 28 28 29 28 30 28 30 29 29 29 31 29 30 30 31 30 32 30 32 31 31 31 33 31 32 32 33 32 34 32 34 33 33 33 35 33 34 34 35 34 36 34 36 35 35 35 37 35 36 36 37 36 38 36 38 37 37 37 39 37 38 38 39 38 40 38 40 39 39 39 41 39 40 40 41 40 42 40 42 41 41 41 43 41 42 42 43 42 44 42 44 43 43 43 45 43 44 44 45 44 46 44 46 45 45 45 47 45 46 46 47 46 48 46 48 47 47 47 49 47 48 48 49 48 0 48 0 49 49 49 1 49 </p>
        </polylist>
      </mesh>
      <extra><technique profile="MAYA"><double_sided>1</double_sided></technique></extra>
    </geometry>
  </library_geometries>
  <library_visual_scenes>
    <visual_scene id="Scene" name="Scene">
      <node id="Collider" type="NODE">
        <translate sid="location">0 0 0</translate>
        <rotate sid="rotationZ">0 0 1 0</rotate>
        <rotate sid="rotationY">0 1 0 0</rotate>
        <rotate sid="rotationX">1 0 0 0</rotate>
        <scale sid="scale">1 1 1</scale>
        <instance_geometry url="#Collider-mesh">
        </instance_geometry>
      </node>
    </visual_scene>
  </library_visual_scenes>
  <scene>
    <instance_visual_scene url="#Scene"/>
  </scene>
</COLLADA>
